%YAML 1.1
%TAG !u! tag:unity3d.com,2011:
--- !u!74 &7400000
AnimationClip:
  m_ObjectHideFlags: 0
  m_CorrespondingSourceObject: {fileID: 0}
  m_PrefabInstance: {fileID: 0}
  m_PrefabAsset: {fileID: 0}
  m_Name: K_solve
  serializedVersion: 6
  m_Legacy: 0
  m_Compressed: 0
  m_UseHighQualityCurve: 1
  m_RotationCurves:
  - curve:
      serializedVersion: 2
      m_Curve:
      - serializedVersion: 3
        time: 0
        value: {x: 0.40253145, y: 1.1210492e-16, z: -4.9295885e-17, w: 0.91540617}
        inSlope: {x: 0, y: 0, z: 0, w: 0}
        outSlope: {x: 0, y: 0, z: 0, w: 0}
        tangentMode: 0
        weightedMode: 0
        inWeight: {x: 0.33333334, y: 0.33333334, z: 0.33333334, w: 0.33333334}
        outWeight: {x: 0.33333334, y: 0.33333334, z: 0.33333334, w: 0.33333334}
      - serializedVersion: 3
        time: 0.43333337
        value: {x: 0.40253145, y: 1.1210492e-16, z: -4.9295885e-17, w: 0.91540617}
        inSlope: {x: 0, y: 0, z: 0, w: 0}
        outSlope: {x: 0, y: 0, z: 0, w: 0}
        tangentMode: 0
        weightedMode: 0
        inWeight: {x: 0.33333334, y: 0.33333334, z: 0.33333334, w: 0.33333334}
        outWeight: {x: 0.33333334, y: 0.33333334, z: 0.33333334, w: 0.33333334}
      - serializedVersion: 3
        time: 0.53333336
        value: {x: 0.37252754, y: 1.1364981e-16, z: -4.5621466e-17, w: 0.92802113}
        inSlope: {x: -0.8567469, y: 4.1313867e-17, z: 1.0492124e-16, w: 0.33735365}
        outSlope: {x: -0.8567469, y: 4.1313867e-17, z: 1.0492124e-16, w: 0.33735365}
        tangentMode: 0
        weightedMode: 0
        inWeight: {x: 0.33333334, y: 0.33333334, z: 0.33333334, w: 0.33333334}
        outWeight: {x: 0.33333334, y: 0.33333334, z: 0.33333334, w: 0.33333334}
      - serializedVersion: 3
        time: 0.6666667
        value: {x: 0.18385826, y: 1.20377e-16, z: -2.2516144e-17, w: 0.9829528}
        inSlope: {x: -1.6750969, y: 3.849825e-17, z: 2.0514017e-16, w: 0.31436032}
        outSlope: {x: -1.6750969, y: 3.849825e-17, z: 2.0514017e-16, w: 0.31436032}
        tangentMode: 0
        weightedMode: 0
        inWeight: {x: 0.33333334, y: 0.33333334, z: 0.33333334, w: 0.33333334}
        outWeight: {x: 0.33333334, y: 0.33333334, z: 0.33333334, w: 0.33333334}
      - serializedVersion: 3
        time: 0.8000001
        value: {x: 0.009779601, y: 1.2245882e-16, z: -1.1976557e-18, w: 0.9999522}
        inSlope: {x: -0.5543039, y: 1.2546667e-18, z: 6.788264e-17, w: 0.010245137}
        outSlope: {x: -0.5543039, y: 1.2546667e-18, z: 6.788264e-17, w: 0.010245137}
        tangentMode: 0
        weightedMode: 0
        inWeight: {x: 0.33333334, y: 0.33333334, z: 0.33333334, w: 0.33333334}
        outWeight: {x: 0.33333334, y: 0.33333334, z: 0.33333334, w: 0.33333334}
      - serializedVersion: 3
        time: 0.8333334
        value: {x: 0, y: 1.2246469e-16, z: -1.2325952e-32, w: 1}
        inSlope: {x: -0.2933883, y: 1.7589185e-19, z: 3.5929705e-17, w: 0.0014340892}
        outSlope: {x: -0.2933883, y: 1.7589185e-19, z: 3.5929705e-17, w: 0.0014340892}
        tangentMode: 0
        weightedMode: 0
        inWeight: {x: 0.33333334, y: 0.33333334, z: 0.33333334, w: 0.33333334}
        outWeight: {x: 0.33333334, y: 0.33333334, z: 0.33333334, w: 0.33333334}
      m_PreInfinity: 2
      m_PostInfinity: 2
      m_RotationOrder: 4
    path: KRight
  - curve:
      serializedVersion: 2
      m_Curve:
      - serializedVersion: 3
        time: 0
        value: {x: -0.7794415, y: 7.672107e-17, z: 9.545405e-17, w: 0.62647504}
        inSlope: {x: 0, y: 0, z: 0, w: 0}
        outSlope: {x: 0, y: 0, z: 0, w: 0}
        tangentMode: 0
        weightedMode: 0
        inWeight: {x: 0.33333334, y: 0.33333334, z: 0.33333334, w: 0.33333334}
        outWeight: {x: 0.33333334, y: 0.33333334, z: 0.33333334, w: 0.33333334}
      - serializedVersion: 3
        time: 0.43333337
        value: {x: -0.7794415, y: 7.672107e-17, z: 9.545405e-17, w: 0.62647504}
        inSlope: {x: 0, y: 0, z: 0, w: 0}
        outSlope: {x: 0, y: 0, z: 0, w: 0}
        tangentMode: 0
        weightedMode: 0
        inWeight: {x: 0.33333334, y: 0.33333334, z: 0.33333334, w: 0.33333334}
        outWeight: {x: 0.33333334, y: 0.33333334, z: 0.33333334, w: 0.33333334}
      - serializedVersion: 3
        time: 0.5
        value: {x: -0.76384896, y: 7.90381e-17, z: 9.354452e-17, w: 0.64539504}
        inSlope: {x: 0.87349683, y: 1.2168663e-16, z: -1.0697248e-16, w: 0.9936472}
        outSlope: {x: 0.87349683, y: 1.2168663e-16, z: -1.0697248e-16, w: 0.9936472}
        tangentMode: 0
        weightedMode: 0
        inWeight: {x: 0.33333334, y: 0.33333334, z: 0.33333334, w: 0.33333334}
        outWeight: {x: 0.33333334, y: 0.33333334, z: 0.33333334, w: 0.33333334}
      - serializedVersion: 3
        time: 0.6
        value: {x: -0.5703035, y: 1.0059666e-16, z: 6.9842035e-17, w: 0.8214341}
        inSlope: {x: 2.7728229, y: 2.3351878e-16, z: -3.395729e-16, w: 1.9068255}
        outSlope: {x: 2.7728229, y: 2.3351878e-16, z: -3.395729e-16, w: 1.9068255}
        tangentMode: 0
        weightedMode: 0
        inWeight: {x: 0.33333334, y: 0.33333334, z: 0.33333334, w: 0.33333334}
        outWeight: {x: 0.33333334, y: 0.33333334, z: 0.33333334, w: 0.33333334}
      - serializedVersion: 3
        time: 0.6666667
        value: {x: -0.36309746, y: 1.1410661e-16, z: 4.4466616e-17, w: 0.9317512}
        inSlope: {x: 3.2243342, y: 1.5509888e-16, z: -3.9486701e-16, w: 1.2664777}
        outSlope: {x: 3.2243342, y: 1.5509888e-16, z: -3.9486701e-16, w: 1.2664777}
        tangentMode: 0
        weightedMode: 0
        inWeight: {x: 0.33333334, y: 0.33333334, z: 0.33333334, w: 0.33333334}
        outWeight: {x: 0.33333334, y: 0.33333334, z: 0.33333334, w: 0.33333334}
      - serializedVersion: 3
        time: 0.7666667
        value: {x: -0.075731665, y: 1.22113e-16, z: 9.274454e-18, w: 0.99712825}
        inSlope: {x: 2.047405, y: 2.2390039e-17, z: -2.507348e-16, w: 0.18282905}
        outSlope: {x: 2.047405, y: 2.2390039e-17, z: -2.507348e-16, w: 0.18282905}
        tangentMode: 0
        weightedMode: 0
        inWeight: {x: 0.33333334, y: 0.33333334, z: 0.33333334, w: 0.33333334}
        outWeight: {x: 0.33333334, y: 0.33333334, z: 0.33333334, w: 0.33333334}
      - serializedVersion: 3
        time: 0.8000001
        value: {x: -0.02048837, y: 1.2243897e-16, z: 2.5091016e-18, w: 0.9997901}
        inSlope: {x: 1.1359746, y: 5.275357e-18, z: -1.3911676e-16, w: 0.043076247}
        outSlope: {x: 1.1359746, y: 5.275357e-18, z: -1.3911676e-16, w: 0.043076247}
        tangentMode: 0
        weightedMode: 0
        inWeight: {x: 0.33333334, y: 0.33333334, z: 0.33333334, w: 0.33333334}
        outWeight: {x: 0.33333334, y: 0.33333334, z: 0.33333334, w: 0.33333334}
      - serializedVersion: 3
        time: 0.8333334
        value: {x: -0, y: 1.2246469e-16, z: 2.4651903e-32, w: 1}
        inSlope: {x: 0.6146517, y: 7.7146245e-19, z: -7.527312e-17, w: 0.006297833}
        outSlope: {x: 0.6146517, y: 7.7146245e-19, z: -7.527312e-17, w: 0.006297833}
        tangentMode: 0
        weightedMode: 0
        inWeight: {x: 0.33333334, y: 0.33333334, z: 0.33333334, w: 0.33333334}
        outWeight: {x: 0.33333334, y: 0.33333334, z: 0.33333334, w: 0.33333334}
      m_PreInfinity: 2
      m_PostInfinity: 2
      m_RotationOrder: 4
    path: KRight/KLeft
  m_CompressedRotationCurves: []
  m_EulerCurves: []
  m_PositionCurves:
  - curve:
      serializedVersion: 2
      m_Curve:
      - serializedVersion: 3
        time: 0
        value: {x: -275.49954, y: 73.86677, z: -300.87903}
        inSlope: {x: -0, y: -0, z: -0}
        outSlope: {x: -0, y: -0, z: -0}
        tangentMode: 0
        weightedMode: 0
        inWeight: {x: 0.33333334, y: 0.33333334, z: 0.33333334}
        outWeight: {x: 0.33333334, y: 0.33333334, z: 0.33333334}
      - serializedVersion: 3
        time: 0.56666666
        value: {x: -275.49954, y: 73.86677, z: -303.92114}
        inSlope: {x: -0, y: -0, z: -1.9341815}
        outSlope: {x: -0, y: -0, z: -1.9341815}
        tangentMode: 0
        weightedMode: 0
        inWeight: {x: 0.33333334, y: 0.33333334, z: 0.33333334}
        outWeight: {x: 0.33333334, y: 0.33333334, z: 0.33333334}
      m_PreInfinity: 2
      m_PostInfinity: 2
      m_RotationOrder: 4
    path: KRight
  - curve:
      serializedVersion: 2
      m_Curve:
      - serializedVersion: 3
        time: 0
        value: {x: -1.4551915e-13, y: -3.5254838, z: -5.40052}
        inSlope: {x: -0, y: -0, z: -0}
        outSlope: {x: -0, y: -0, z: -0}
        tangentMode: 0
        weightedMode: 0
        inWeight: {x: 0.33333334, y: 0.33333334, z: 0.33333334}
        outWeight: {x: 0.33333334, y: 0.33333334, z: 0.33333334}
      - serializedVersion: 3
        time: 0.16666667
        value: {x: -1.4551915e-13, y: -3.5254838, z: -5.40052}
        inSlope: {x: -0, y: -0, z: -0}
        outSlope: {x: -0, y: -17.806091, z: 19.4136}
        tangentMode: 0
        weightedMode: 0
        inWeight: {x: 0.33333334, y: 0.33333334, z: 0.33333334}
        outWeight: {x: 0.33333334, y: 0.33333334, z: 0.33333334}
      - serializedVersion: 3
        time: 0.2
        value: {x: -1.4551915e-13, y: -4.1190205, z: -4.7534}
        inSlope: {x: -0, y: -17.806091, z: 19.4136}
        outSlope: {x: -0, y: -21.53705, z: 23.48138}
        tangentMode: 0
        weightedMode: 0
        inWeight: {x: 0.33333334, y: 0.33333334, z: 0.33333334}
        outWeight: {x: 0.33333334, y: 0.33333334, z: 0.33333334}
      - serializedVersion: 3
        time: 0.3
        value: {x: -1.4551915e-13, y: -6.204344, z: -2.4798164}
        inSlope: {x: -0, y: -19.916512, z: 21.714539}
        outSlope: {x: -0, y: -18.227198, z: 19.872725}
        tangentMode: 0
        weightedMode: 0
        inWeight: {x: 0.33333334, y: 0.33333334, z: 0.33333334}
        outWeight: {x: 0.33333334, y: 0.33333334, z: 0.33333334}
      - serializedVersion: 3
        time: 0.33333334
        value: {x: -1.4551915e-13, y: -6.811917, z: -1.8173922}
        inSlope: {x: -0, y: -18.227198, z: 19.872725}
        outSlope: {x: -0, y: -16.018854, z: 17.465017}
        tangentMode: 0
        weightedMode: 0
        inWeight: {x: 0.33333334, y: 0.33333334, z: 0.33333334}
        outWeight: {x: 0.33333334, y: 0.33333334, z: 0.33333334}
      - serializedVersion: 3
        time: 0.36666667
        value: {x: -1.4551915e-13, y: -7.3458786, z: -1.2352251}
        inSlope: {x: -0, y: -16.018854, z: 17.465017}
        outSlope: {x: -0, y: -13.136702, z: 14.322666}
        tangentMode: 0
        weightedMode: 0
        inWeight: {x: 0.33333334, y: 0.33333334, z: 0.33333334}
        outWeight: {x: 0.33333334, y: 0.33333334, z: 0.33333334}
      - serializedVersion: 3
        time: 0.4
        value: {x: -1.4551915e-13, y: -7.7837687, z: -0.75780284}
        inSlope: {x: -0, y: -13.136702, z: 14.322666}
        outSlope: {x: -0, y: -9.252997, z: 10.088344}
        tangentMode: 0
        weightedMode: 0
        inWeight: {x: 0.33333334, y: 0.33333334, z: 0.33333334}
        outWeight: {x: 0.33333334, y: 0.33333334, z: 0.33333334}
      - serializedVersion: 3
        time: 0.43333334
        value: {x: -1.4551915e-13, y: -8.092202, z: -0.42152476}
        inSlope: {x: -0, y: -9.252997, z: 10.088344}
        outSlope: {x: -0, y: -3.6775088, z: 4.0095196}
        tangentMode: 0
        weightedMode: 0
        inWeight: {x: 0.33333334, y: 0.33333334, z: 0.33333334}
        outWeight: {x: 0.33333334, y: 0.33333334, z: 0.33333334}
      - serializedVersion: 3
        time: 0.46666667
        value: {x: -1.4551915e-13, y: -8.214786, z: -0.28787413}
        inSlope: {x: -0, y: -3.6775088, z: 4.0095196}
        outSlope: {x: -0, y: -3.6775088, z: 4.0095196}
        tangentMode: 0
        weightedMode: 0
        inWeight: {x: 0.33333334, y: 0.33333334, z: 0.33333334}
        outWeight: {x: 0.33333334, y: 0.33333334, z: 0.33333334}
      m_PreInfinity: 2
      m_PostInfinity: 2
      m_RotationOrder: 4
    path: KRight/KLeft
  m_ScaleCurves:
  - curve:
      serializedVersion: 2
      m_Curve:
      - serializedVersion: 3
        time: 0
        value: {x: 1, y: 1, z: 1}
        inSlope: {x: 0, y: 0, z: 0}
        outSlope: {x: 0, y: 0, z: 0}
        tangentMode: 0
        weightedMode: 0
        inWeight: {x: 0.33333334, y: 0.33333334, z: 0.33333334}
        outWeight: {x: 0.33333334, y: 0.33333334, z: 0.33333334}
      - serializedVersion: 3
        time: 0.033333335
        value: {x: 1, y: 1, z: 1}
        inSlope: {x: 0, y: 0, z: 0}
        outSlope: {x: 0, y: 0, z: 0}
        tangentMode: 0
        weightedMode: 0
        inWeight: {x: 0.33333334, y: 0.33333334, z: 0.33333334}
        outWeight: {x: 0.33333334, y: 0.33333334, z: 0.33333334}
      m_PreInfinity: 2
      m_PostInfinity: 2
      m_RotationOrder: 4
    path: KRight
  - curve:
      serializedVersion: 2
      m_Curve:
      - serializedVersion: 3
        time: 0
        value: {x: 1, y: 1, z: 1}
        inSlope: {x: 0, y: 0, z: 0}
        outSlope: {x: 0, y: 0, z: 0}
        tangentMode: 0
        weightedMode: 0
        inWeight: {x: 0.33333334, y: 0.33333334, z: 0.33333334}
        outWeight: {x: 0.33333334, y: 0.33333334, z: 0.33333334}
      - serializedVersion: 3
        time: 0.033333335
        value: {x: 1, y: 1, z: 1}
        inSlope: {x: 0, y: 0, z: 0}
        outSlope: {x: 0, y: 0, z: 0}
        tangentMode: 0
        weightedMode: 0
        inWeight: {x: 0.33333334, y: 0.33333334, z: 0.33333334}
        outWeight: {x: 0.33333334, y: 0.33333334, z: 0.33333334}
      m_PreInfinity: 2
      m_PostInfinity: 2
      m_RotationOrder: 4
    path: KRight/KLeft
  m_FloatCurves: []
  m_PPtrCurves: []
  m_SampleRate: 30
  m_WrapMode: 0
  m_Bounds:
    m_Center: {x: 0, y: 0, z: 0}
    m_Extent: {x: 0, y: 0, z: 0}
  m_ClipBindingConstant:
    genericBindings: []
    pptrCurveMapping: []
  m_AnimationClipSettings:
    serializedVersion: 2
    m_AdditiveReferencePoseClip: {fileID: 0}
    m_AdditiveReferencePoseTime: 0
    m_StartTime: 0
    m_StopTime: 0.8333334
    m_OrientationOffsetY: 0
    m_Level: 0
    m_CycleOffset: 0
    m_HasAdditiveReferencePose: 0
    m_LoopTime: 0
    m_LoopBlend: 0
    m_LoopBlendOrientation: 0
    m_LoopBlendPositionY: 0
    m_LoopBlendPositionXZ: 0
    m_KeepOriginalOrientation: 0
    m_KeepOriginalPositionY: 1
    m_KeepOriginalPositionXZ: 0
    m_HeightFromFeet: 0
    m_Mirror: 0
  m_EditorCurves: []
  m_EulerEditorCurves: []
  m_HasGenericRootTransform: 0
  m_HasMotionFloatCurves: 0
  m_Events: []
